syseng_hwco/proj/Artifact/Code/SystemC/EmergencyButton/AudioWave.vcd
$date
     Mar 07, 2011       17:50:33
$end

$version
              SystemC 2.2.0 --- Sep 13 2010 09:50:05
$end

$timescale
     1 ps
$end

$scope module SystemC $end
$var wire    1  aaa  Audio_clk       $end
$var wire    1  aab  ADC_busy       $end
$var wire   12  aac  ADCData [11:0]  $end
$var wire    1  aad  EC_busy       $end
$var wire   12  aae  EchoCanData [11:0]  $end
$var wire    1  aaf  ENCOD_busy       $end
$var wire    1  aag  hsClk       $end
$var wire   12  aah  EncoderData [11:0]  $end
$var wire    1  aai  COMSIM_busy       $end
$var wire   12  aaj  ComSimData [11:0]  $end
$var wire   12  aak  DecoderData [11:0]  $end
$upscope $end
$enddefinitions  $end

$comment
All initial values are dumped below at time 0 sec = 0 timescale units.
$end

$dumpvars
1aaa
0aab
b0 aac
0aad
b0 aae
0aaf
1aag
b0 aah
0aai
b0 aaj
b0 aak
$end

#62500
0aag

#125000
1aag

#187500
0aag

#250000
1aag

#312500
0aag

#375000
1aag

#437500
0aag

#500000
1aag

#510000
1aab

#562500
0aag

#625000
1aag

#687500
0aag

#750000
1aag

#812500
0aag

#875000
1aag

#937500
0aag

#1000000
1aag

#1062500
0aag

#1125000
1aag

#1187500
0aag

#1250000
1aag

#1312500
0aag

#1375000
1aag

#1437500
0aag

#1500000
1aag

#1562500
0aag

#1625000
1aag

#1687500
0aag

#1750000
1aag

#1812500
0aag

#1875000
1aag

#1937500
0aag

#2000000
1aag

#2062500
0aag

#2125000
1aag

#2187500
0aag

#2250000
1aag

#2312500
0aag

#2375000
1aag

#2437500
0aag

#2500000
1aag

#2562500
0aag

#2625000
1aag

#2687500
0aag

#2750000
1aag

#2812500
0aag

#2875000
1aag

#2937500
0aag

#3000000
1aag

#3062500
0aag

#3125000
1aag

#3187500
0aag

#3250000
1aag

#3312500
0aag

#3375000
1aag

#3437500
0aag

#3500000
1aag

#3562500
0aag

#3625000
1aag

#3687500
0aag

#3750000
1aag

#3812500
0aag

#3875000
1aag

#3937500
0aag

#4000000
1aag

#4062500
0aag

#4125000
1aag

#4187500
0aag

#4250000
1aag

#4312500
0aag

#4375000
1aag

#4437500
0aag

#4500000
1aag

#4562500
0aag

#4625000
1aag

#4687500
0aag

#4750000
1aag

#4812500
0aag

#4875000
1aag

#4937500
0aag

#5000000
1aag

#5062500
0aag

#5125000
1aag

#5187500
0aag

#5250000
1aag

#5312500
0aag

#5375000
1aag

#5437500
0aag

#5500000
1aag

#5520000
1aad

#5562500
0aag

#5625000
1aag

#5687500
0aag

#5750000
1aag

#5812500
0aag

#5875000
1aag

#5937500
0aag

#6000000
1aag

#6062500
0aag

#6125000
1aag

#6187500
0aag

#6250000
1aag

#6312500
0aag

#6375000
1aag

#6437500
0aag

#6500000
1aag

#6562500
0aag

#6625000
1aag

#6687500
0aag

#6750000
1aag

#6812500
0aag

#6875000
1aag

#6937500
0aag

#7000000
1aag

#7062500
0aag

#7125000
1aag

#7187500
0aag

#7250000
1aag

#7312500
0aag

#7375000
1aag

#7437500
0aag

#7500000
1aag

#7562500
0aag

#7625000
1aag

#7687500
0aag

#7750000
1aag

#7812500
0aag

#7875000
1aag

#7937500
0aag

#8000000
1aag

#8062500
0aag

#8125000
1aag

#8187500
0aag

#8250000
1aag

#8312500
0aag

#8375000
1aag

#8437500
0aag

#8500000
1aag

#8562500
0aag

#8625000
1aag

#8687500
0aag

#8750000
1aag

#8812500
0aag

#8875000
1aag

#8937500
0aag

#9000000
1aag

#9062500
0aag

#9125000
1aag

#9187500
0aag

#9250000
1aag

#9312500
0aag

#9375000
1aag

#9437500
0aag

#9500000
1aag

#9562500
0aag

#9625000
1aag

#9687500
0aag

#9750000
1aag

#9812500
0aag

#9875000
1aag

#9937500
0aag

#10000000
1aag

#10062500
0aag

#10125000
1aag

#10187500
0aag

#10250000
1aag

#10312500
0aag

#10375000
1aag

#10437500
0aag

#10500000
1aag

#10562500
0aag

#10625000
1aag

#10687500
0aag

#10750000
1aag

#10812500
0aag

#10875000
1aag

#10937500
0aag

#11000000
1aag

#11062500
0aag

#11125000
1aag

#11187500
0aag

#11250000
1aag

#11312500
0aag

#11363500
0aaa

#11375000
1aag

#11437500
0aag

#11500000
1aag

#11562500
0aag

#11625000
1aag

#11687500
0aag

#11750000
1aag

#11812500
0aag

#11875000
1aag

#11937500
0aag

#12000000
1aag

#12062500
0aag

#12125000
1aag

#12187500
0aag

#12250000
1aag

#12312500
0aag

#12375000
1aag

#12437500
0aag

#12500000
1aag

#12562500
0aag

#12625000
1aag

#12687500
0aag

#12750000
1aag

#12812500
0aag

#12875000
1aag

#12937500
0aag

#13000000
1aag

#13062500
0aag

#13125000
1aag

#13187500
0aag

#13250000
1aag

#13312500
0aag

#13375000
1aag

#13437500
0aag

#13500000
1aag

#13562500
0aag

#13625000
1aag

#13687500
0aag

#13750000
1aag

#13812500
0aag

#13875000
1aag

#13937500
0aag

#14000000
1aag

#14062500
0aag

#14125000
1aag

#14187500
0aag

#14250000
1aag

#14312500
0aag

#14375000
1aag

#14437500
0aag

#14500000
1aag

#14562500
0aag

#14625000
1aag

#14687500
0aag

#14750000
1aag

#14812500
0aag

#14875000
1aag

#14937500
0aag

#15000000
1aag

#15062500
0aag

#15125000
1aag

#15187500
0aag

#15250000
1aag

#15312500
0aag

#15375000
1aag

#15437500
0aag

#15500000
1aag

#15562500
0aag

#15625000
1aag

#15687500
0aag

#15750000
1aag

#15812500
0aag

#15875000
1aag

#15937500
0aag

#16000000
1aag

#16062500
0aag

#16125000
1aag

#16187500
0aag

#16250000
1aag

#16312500
0aag

#16375000
1aag

#16437500
0aag

#16500000
1aag

#16562500
0aag

#16625000
1aag

#16687500
0aag

#16750000
1aag

#16812500
0aag

#16875000
1aag

#16937500
0aag

#17000000
1aag

#17062500
0aag

#17125000
1aag

#17187500
0aag

#17250000
1aag

#17312500
0aag

#17375000
1aag

#17437500
0aag

#17500000
1aag

#17562500
0aag

#17625000
1aag

#17687500
0aag

#17750000
1aag

#17812500
0aag

#17875000
1aag

#17937500
0aag

#18000000
1aag

#18062500
0aag

#18125000
1aag

#18187500
0aag

#18250000
1aag

#18312500
0aag

#18375000
1aag

#18437500
0aag

#18500000
1aag

#18562500
0aag

#18625000
1aag

#18687500
0aag

#18750000
1aag

#18812500
0aag

#18875000
1aag

#18937500
0aag

#19000000
1aag

#19062500
0aag

#19125000
1aag

#19187500
0aag

#19250000
1aag

#19312500
0aag

#19375000
1aag

#19437500
0aag

#19500000
1aag

#19562500
0aag

#19625000
1aag

#19687500
0aag

#19750000
1aag

#19812500
0aag

#19875000
1aag

#19937500
0aag

#20000000
1aag

#20062500
0aag

#20125000
1aag

#20187500
0aag

#20250000
1aag

#20312500
0aag

#20375000
1aag

#20437500
0aag

#20500000
1aag

#20562500
0aag

#20625000
1aag

#20687500
0aag

#20750000
1aag

#20812500
0aag

#20875000
1aag

#20937500
0aag

#21000000
1aag

#21062500
0aag

#21125000
1aag

#21187500
0aag

#21250000
1aag

#21312500
0aag

#21375000
1aag

#21437500
0aag

#21500000
1aag

#21562500
0aag

#21625000
1aag

#21687500
0aag

#21750000
1aag

#21812500
0aag

#21875000
1aag

#21937500
0aag

#22000000
1aag

#22062500
0aag

#22125000
1aag

#22187500
0aag

#22250000
1aag

#22312500
0aag

#22375000
1aag

#22437500
0aag

#22500000
1aag

#22562500
0aag

#22625000
1aag

#22687500
0aag

#22727000
1aaa
0aab
0aad

#22750000
1aag

#22812500
0aag

#22875000
1aag

#22937500
0aag

#23000000
1aag

#23062500
0aag

#23125000
1aag

#23187500
0aag

#23227000
b10000101101 aac

#23237000
1aab

#23250000
1aag

#23312500
0aag

#23375000
1aag

#23437500
0aag

#23500000
1aag

#23562500
0aag

#23625000
1aag

#23687500
0aag

#23750000
1aag

#23812500
0aag

#23875000
1aag

#23937500
0aag

#24000000
1aag

#24062500
0aag

#24125000
1aag

#24187500
0aag

#24250000
1aag

#24312500
0aag

#24375000
1aag

#24437500
0aag

#24500000
1aag

#24562500
0aag

#24625000
1aag

#24687500
0aag

#24750000
1aag

#24812500
0aag

#24875000
1aag

#24937500
0aag

#25000000
1aag

#25062500
0aag

#25125000
1aag

#25187500
0aag

#25250000
1aag

#25312500
0aag

#25375000
1aag

#25437500
0aag

#25500000
1aag

#25562500
0aag

#25625000
1aag

#25687500
0aag

#25750000
1aag

#25812500
0aag

#25875000
1aag

#25937500
0aag

#26000000
1aag

#26062500
0aag

#26125000
1aag

#26187500
0aag

#26250000
1aag

#26312500
0aag

#26375000
1aag

#26437500
0aag

#26500000
1aag

#26562500
0aag

#26625000
1aag

#26687500
0aag

#26750000
1aag

#26812500
0aag

#26875000
1aag

#26937500
0aag

#27000000
1aag

#27062500
0aag

#27125000
1aag

#27187500
0aag

#27250000
1aag

#27312500
0aag

#27375000
1aag

#27437500
0aag

#27500000
1aag

#27562500
0aag

#27625000
1aag

#27687500
0aag

#27750000
1aag

#27812500
0aag

#27875000
1aag

#27937500
0aag

#28000000
1aag

#28062500
0aag

#28125000
1aag

#28187500
0aag

#28237000
b10000101101 aae

#28247000
1aad

#28250000
1aag

#28312500
0aag

#28375000
1aag

#28437500
0aag

#28500000
1aag

#28562500
0aag

#28625000
1aag

#28687500
0aag

#28750000
1aag

#28812500
0aag

#28875000
1aag

#28937500
0aag

#29000000
1aag

#29062500
0aag

#29125000
1aag

#29187500
0aag

#29250000
1aag

#29312500
0aag

#29375000
1aag

#29437500
0aag

#29500000
1aag

#29562500
0aag

#29625000
1aag

#29687500
0aag

#29750000
1aag

#29812500
0aag

#29875000
1aag

#29937500
0aag

#30000000
1aag

#30062500
0aag

#30125000
1aag

#30187500
0aag

#30250000
1aag

#30312500
0aag

#30375000
1aag

#30437500
0aag

#30500000
1aag

#30562500
0aag

#30625000
1aag

#30687500
0aag

#30750000
1aag

#30812500
0aag

#30875000
1aag

#30937500
0aag

#31000000
1aag

#31062500
0aag

#31125000
1aag

#31187500
0aag

#31250000
1aag

#31312500
0aag

#31375000
1aag

#31437500
0aag

#31500000
1aag

#31562500
0aag

#31625000
1aag

#31687500
0aag

#31750000
1aag

#31812500
0aag

#31875000
1aag

#31937500
0aag

#32000000
1aag

#32062500
0aag

#32125000
1aag

#32187500
0aag

#32250000
1aag

#32312500
0aag

#32375000
1aag

#32437500
0aag

#32500000
1aag

#32562500
0aag

#32625000
1aag

#32687500
0aag

#32750000
1aag

#32812500
0aag

#32875000
1aag

#32937500
0aag

#33000000
1aag

#33062500
0aag

#33125000
1aag

#33187500
0aag

#33250000
1aag

#33312500
0aag

#33375000
1aag

#33437500
0aag

#33500000
1aag

#33562500
0aag

#33625000
1aag

#33687500
0aag

#33750000
1aag

#33812500
0aag

#33875000
1aag

#33937500
0aag

#34000000
1aag

#34062500
0aag

#34090500
0aaa

#34125000
1aag

#34187500
0aag

#34250000
1aag

#34312500
0aag

#34375000
1aag

#34437500
0aag

#34500000
1aag

#34562500
0aag

#34625000
1aag

#34687500
0aag

#34750000
1aag

#34812500
0aag

#34875000
1aag

#34937500
0aag

#35000000
1aag

#35062500
0aag

#35125000
1aag

#35187500
0aag

#35250000
1aag

#35312500
0aag

#35375000
1aag

#35437500
0aag

#35500000
1aag

#35562500
0aag

#35625000
1aag

#35687500
0aag

#35750000
1aag

#35812500
0aag

#35875000
1aag

#35937500
0aag

#36000000
1aag

#36062500
0aag

#36125000
1aag

#36187500
0aag

#36250000
1aag

#36312500
0aag

#36375000
1aag

#36437500
0aag

#36500000
1aag

#36562500
0aag

#36625000
1aag

#36687500
0aag

#36750000
1aag

#36812500
0aag

#36875000
1aag

#36937500
0aag

#37000000
1aag

#37062500
0aag

#37125000
1aag

#37187500
0aag

#37250000
1aag

#37312500
0aag

#37375000
1aag

#37437500
0aag

#37500000
1aag

#37562500
0aag

#37625000
1aag

#37687500
0aag

#37750000
1aag

#37812500
0aag

#37875000
1aag

#37937500
0aag

#38000000
1aag

#38062500
0aag

#38125000
1aag

#38187500
0aag

#38250000
1aag

#38312500
0aag

#38375000
1aag

#38437500
0aag

#38500000
1aag

#38562500
0aag

#38625000
1aag

#38687500
0aag

#38750000
1aag

#38812500
0aag

#38875000
1aag

#38937500
0aag

#39000000
1aag

#39062500
0aag

#39125000
1aag

#39187500
0aag

#39250000
1aag

#39312500
0aag

#39375000
1aag

#39437500
0aag

#39500000
1aag

#39562500
0aag

#39625000
1aag

#39687500
0aag

#39750000
1aag

#39812500
0aag

#39875000
1aag

#39937500
0aag

#40000000
1aag

#40062500
0aag

#40125000
1aag

#40187500
0aag

#40250000
1aag

#40312500
0aag

#40375000
1aag

#40437500
0aag

#40500000
1aag

#40562500
0aag

#40625000
1aag

#40687500
0aag

#40750000
1aag

#40812500
0aag

#40875000
1aag

#40937500
0aag

#41000000
1aag

#41062500
0aag

#41125000
1aag

#41187500
0aag

#41250000
1aag

#41312500
0aag

#41375000
1aag

#41437500
0aag

#41500000
1aag

#41562500
0aag

#41625000
1aag

#41687500
0aag

#41750000
1aag

#41812500
0aag

#41875000
1aag

#41937500
0aag

#42000000
1aag

#42062500
0aag

#42125000
1aag

#42187500
0aag

#42250000
1aag

#42312500
0aag

#42375000
1aag

#42437500
0aag

#42500000
1aag

#42562500
0aag

#42625000
1aag

#42687500
0aag

#42750000
1aag

#42812500
0aag

#42875000
1aag

#42937500
0aag

#43000000
1aag

#43062500
0aag

#43125000
1aag

#43187500
0aag

#43250000
1aag

#43312500
0aag

#43375000
1aag

#43437500
0aag

#43500000
1aag

#43562500
0aag

#43625000
1aag

#43687500
0aag

#43750000
1aag

#43812500
0aag

#43875000
1aag

#43937500
0aag

#44000000
1aag

#44062500
0aag

#44125000
1aag

#44187500
0aag

#44250000
1aag

#44312500
0aag

#44375000
1aag

#44437500
0aag

#44500000
1aag

#44562500
0aag

#44625000
1aag

#44687500
0aag

#44750000
1aag

#44812500
0aag

#44875000
1aag

#44937500
0aag

#45000000
1aag

#45062500
0aag

#45125000
1aag

#45187500
0aag

#45250000
1aag

#45312500
0aag

#45375000
1aag

#45437500
0aag

#45454000
1aaa
0aab
0aad

#45500000
1aag

#45562500
0aag

#45625000
1aag

#45687500
0aag

#45750000
1aag

#45812500
0aag

#45875000
1aag

#45937500
0aag

#45954000
b110011001111 aac

#45964000
1aab

